{
    "typeAcquisition": {
        "include": [
            "body-parser",
            "cookie-parser",
            "cors",
            "dotenv",
            "express",
            "mongodb",
            "mongoose",
            "morgan",
            "request"
        ]
    },
    "javascript.implicitProjectConfig.checkJs": true,
    "compilerOptions": {
        "checkJs": true
    },
}